\relax 
\citation{michelson2010discovering}
\citation{carter2011twitter}
\citation{muntean2012exploring}
\citation{kireyev2009applications}
\citation{godfrey2014case}
\citation{klinczak2015identification}
\citation{sechelea2016twitter}
\citation{rosa2011topical}
\citation{antenucci2011classification}
\providecommand \oddpage@label [2]{}
\select@language{english}
\@writefile{toc}{\select@language{english}}
\@writefile{lof}{\select@language{english}}
\@writefile{lot}{\select@language{english}}
\@writefile{toc}{\contentsline {section}{\numberline {I}Introduction}{1}}
\@writefile{toc}{\contentsline {section}{\numberline {II}Background \& Related work}{1}}
\@writefile{toc}{\contentsline {section}{\numberline {III}Methodology}{1}}
\citation{norvig2009natural}
\citation{arthur2007k}
\citation{subhashini2010evaluating}
\citation{huang2008similarity}
\@writefile{toc}{\contentsline {section}{\numberline {IV}Data Preprocessing}{2}}
\@writefile{loa}{\contentsline {algocf}{\numberline {1}{\ignorespaces Text Preprocessing Pipeline\relax }}{2}}
\providecommand*\caption@xref[2]{\@setref\relax\@undefined{#1}}
\newlabel{algo:pipeline}{{1}{2}}
\@writefile{toc}{\contentsline {subsection}{\numberline {\unhbox \voidb@x \hbox {IV-A}}Hashtag Tokenization}{2}}
\@writefile{loa}{\contentsline {algocf}{\numberline {2}{\ignorespaces Hashtag Segmentation Algorithm\relax }}{2}}
\newlabel{algo:wordseg}{{2}{2}}
\@writefile{toc}{\contentsline {subsection}{\numberline {\unhbox \voidb@x \hbox {IV-B}}Feature Engineering}{2}}
\@writefile{lot}{\contentsline {table}{\numberline {I}{\ignorespaces Feature selection strategy\relax }}{2}}
\newlabel{tab:strategies}{{I}{2}}
\@writefile{toc}{\contentsline {subsection}{\numberline {\unhbox \voidb@x \hbox {IV-C}}Noise Filtering}{2}}
\@writefile{toc}{\contentsline {section}{\numberline {V}Clustering Techniques}{2}}
\@writefile{toc}{\contentsline {subsection}{\numberline {\unhbox \voidb@x \hbox {V-A}}K-Means++ Clustering}{2}}
\citation{godfrey2014case}
\citation{koopman2017mutual}
\@writefile{loa}{\contentsline {algocf}{\numberline {3}{\ignorespaces Standard K-Means algorithm (Lloyd's algorithm)\relax }}{3}}
\newlabel{algo:kmeans}{{3}{3}}
\@writefile{loa}{\contentsline {algocf}{\numberline {4}{\ignorespaces K-Means++ algorithm\relax }}{3}}
\newlabel{algo:kmeans_plus_plus}{{4}{3}}
\@writefile{toc}{\contentsline {section}{\numberline {VI}Non-negative Matrix Factorization}{3}}
\@writefile{toc}{\contentsline {section}{\numberline {VII}Cluster labeling}{3}}
\@writefile{loa}{\contentsline {algocf}{\numberline {5}{\ignorespaces Alternating Least Square Method for NMF Calculation.\relax }}{3}}
\newlabel{algo:nmf}{{5}{3}}
\@writefile{toc}{\contentsline {section}{\numberline {VIII}Evaluation and results}{3}}
\@writefile{loa}{\contentsline {algocf}{\numberline {6}{\ignorespaces Clustering Procedure\relax }}{3}}
\newlabel{algo:clustering}{{6}{3}}
\@writefile{toc}{\contentsline {subsection}{\numberline {\unhbox \voidb@x \hbox {VIII-A}}KMeans++}{3}}
\@writefile{lot}{\contentsline {table}{\numberline {II}{\ignorespaces Topic Detected using K-Means\relax }}{4}}
\newlabel{table:kmeans-results}{{II}{4}}
\@writefile{lof}{\contentsline {figure}{\numberline {1}{\ignorespaces Feature Count Comparison\relax }}{4}}
\newlabel{fig:feature-count}{{1}{4}}
\@writefile{toc}{\contentsline {subsection}{\numberline {\unhbox \voidb@x \hbox {VIII-B}}NMF}{4}}
\@writefile{toc}{\contentsline {subsection}{\numberline {\unhbox \voidb@x \hbox {VIII-C}}Word Cloud}{4}}
\@writefile{toc}{\contentsline {subsection}{\numberline {\unhbox \voidb@x \hbox {VIII-D}}Data related observations}{4}}
\@writefile{lot}{\contentsline {table}{\numberline {III}{\ignorespaces Topics Detected with NMF\relax }}{4}}
\newlabel{table:nmf-results}{{III}{4}}
\newlabel{fig:cloud-0}{{2a}{4}}
\newlabel{sub@fig:cloud-0}{{a}{4}}
\newlabel{fig:cloud-1}{{2b}{4}}
\newlabel{sub@fig:cloud-1}{{b}{4}}
\newlabel{fig:cloud-2}{{2c}{4}}
\newlabel{sub@fig:cloud-2}{{c}{4}}
\newlabel{fig:cloud-3}{{2d}{4}}
\newlabel{sub@fig:cloud-3}{{d}{4}}
\@writefile{lof}{\contentsline {figure}{\numberline {2}{\ignorespaces Word Cloud For K = 17 using NMF Clustering\relax }}{4}}
\newlabel{fig:cloud-main}{{2}{4}}
\bibstyle{plain}
\bibdata{Bibliography}
\bibcite{antenucci2011classification}{1}
\bibcite{arthur2007k}{2}
\bibcite{carter2011twitter}{3}
\bibcite{godfrey2014case}{4}
\bibcite{huang2008similarity}{5}
\bibcite{kireyev2009applications}{6}
\bibcite{klinczak2015identification}{7}
\bibcite{koopman2017mutual}{8}
\bibcite{michelson2010discovering}{9}
\bibcite{muntean2012exploring}{10}
\bibcite{norvig2009natural}{11}
\bibcite{rosa2011topical}{12}
\bibcite{sechelea2016twitter}{13}
\bibcite{subhashini2010evaluating}{14}
\@writefile{lot}{\contentsline {table}{\numberline {IV}{\ignorespaces Execution time (in secs) comparison of strategies for K-Means++ \& NMF Data clustering techniques.\relax }}{5}}
\newlabel{table:performance}{{IV}{5}}
\@writefile{toc}{\contentsline {subsection}{\numberline {\unhbox \voidb@x \hbox {VIII-E}}Conclusion}{5}}
\@writefile{toc}{\contentsline {section}{References}{5}}
